{
  "project_info": {
    "project_number": "255265382133",
    "firebase_url": "https://skytest-98258.firebaseio.com",
    "project_id": "skytest-98258",
    "storage_bucket": "skytest-98258.appspot.com"
  },
  "client": [
    {
      "client_info": {
        "mobilesdk_app_id": "1:255265382133:android:b4220ed5b2fa3d48",
        "android_client_info": {
          "package_name": "sky.arkangelx.com.skytest"
        }
      },
      "oauth_client": [
        {
          "client_id": "255265382133-flcrs3rav8vh4b347u2orji5kjr014r9.apps.googleusercontent.com",
          "client_type": 3
        }
      ],
      "api_key": [
        {
          "current_key": "AIzaSyDYXLaUNaTEUK3l8TZBjcmkFjpenrBtKJ0"
        }
      ],
      "services": {
        "analytics_service": {
          "status": 1
        },
        "appinvite_service": {
          "status": 1,
          "other_platform_oauth_client": []
        },
        "ads_service": {
          "status": 2
        }
      }
    }
  ],
  "configuration_version": "1"
}